<mxfile host="app.diagrams.net" modified="2022-03-13T10:32:36.767Z" agent="5.0 (Windows NT 10.0; Win64; x64) AppleWebKit/537.36 (KHTML, like Gecko) Chrome/99.0.4844.51 Safari/537.36" etag="YMfD81q_iGcxvloYSLmo" version="17.1.2" type="gitlab">
  <diagram id="12r-nP--rIO9iA24YdFw" name="Page-1">
    <mxGraphModel dx="1185" dy="635" grid="1" gridSize="10" guides="1" tooltips="1" connect="1" arrows="1" fold="1" page="1" pageScale="1" pageWidth="850" pageHeight="1100" math="0" shadow="0">
      <root>
        <mxCell id="0" />
        <mxCell id="1" parent="0" />
        <mxCell id="EbW1Ds2yCQRpLuTbbWyk-5" value="" style="edgeStyle=orthogonalEdgeStyle;rounded=0;orthogonalLoop=1;jettySize=auto;html=1;" edge="1" parent="1" source="EbW1Ds2yCQRpLuTbbWyk-1" target="EbW1Ds2yCQRpLuTbbWyk-4">
          <mxGeometry relative="1" as="geometry" />
        </mxCell>
        <mxCell id="EbW1Ds2yCQRpLuTbbWyk-9" value="" style="edgeStyle=orthogonalEdgeStyle;rounded=0;orthogonalLoop=1;jettySize=auto;html=1;" edge="1" parent="1" source="EbW1Ds2yCQRpLuTbbWyk-1" target="EbW1Ds2yCQRpLuTbbWyk-8">
          <mxGeometry relative="1" as="geometry" />
        </mxCell>
        <mxCell id="EbW1Ds2yCQRpLuTbbWyk-1" value="Wake up in the morning&lt;br&gt;a) Turn the alarm of and continue sleeping&lt;br&gt;b) get up" style="rounded=0;whiteSpace=wrap;html=1;" vertex="1" parent="1">
          <mxGeometry x="70" y="100" width="180" height="80" as="geometry" />
        </mxCell>
        <mxCell id="EbW1Ds2yCQRpLuTbbWyk-7" value="" style="edgeStyle=orthogonalEdgeStyle;rounded=0;orthogonalLoop=1;jettySize=auto;html=1;" edge="1" parent="1" source="EbW1Ds2yCQRpLuTbbWyk-4" target="EbW1Ds2yCQRpLuTbbWyk-6">
          <mxGeometry relative="1" as="geometry" />
        </mxCell>
        <mxCell id="EbW1Ds2yCQRpLuTbbWyk-20" value="" style="edgeStyle=orthogonalEdgeStyle;rounded=0;orthogonalLoop=1;jettySize=auto;html=1;" edge="1" parent="1" source="EbW1Ds2yCQRpLuTbbWyk-4" target="EbW1Ds2yCQRpLuTbbWyk-19">
          <mxGeometry relative="1" as="geometry" />
        </mxCell>
        <mxCell id="EbW1Ds2yCQRpLuTbbWyk-4" value="Got out of bed, go to kitchen make some coffee&lt;br&gt;a) Spill the water while making coffee&lt;br&gt;b) successfully put the water to heat up" style="whiteSpace=wrap;html=1;rounded=0;" vertex="1" parent="1">
          <mxGeometry x="330" y="95" width="240" height="90" as="geometry" />
        </mxCell>
        <mxCell id="EbW1Ds2yCQRpLuTbbWyk-6" value="While the water is on the flour&lt;br&gt;a) pick it up and putt the water back again to heat up&lt;br&gt;b) do nothing and go to sleep" style="whiteSpace=wrap;html=1;rounded=0;" vertex="1" parent="1">
          <mxGeometry x="630" y="95" width="200" height="90" as="geometry" />
        </mxCell>
        <mxCell id="EbW1Ds2yCQRpLuTbbWyk-11" value="" style="edgeStyle=orthogonalEdgeStyle;rounded=0;orthogonalLoop=1;jettySize=auto;html=1;" edge="1" parent="1" source="EbW1Ds2yCQRpLuTbbWyk-8" target="EbW1Ds2yCQRpLuTbbWyk-10">
          <mxGeometry relative="1" as="geometry" />
        </mxCell>
        <mxCell id="EbW1Ds2yCQRpLuTbbWyk-8" value="Notices you can not sleep because of stupid collage&lt;br&gt;a) even due to collage continue sleeping&lt;br&gt;b) get up" style="whiteSpace=wrap;html=1;rounded=0;" vertex="1" parent="1">
          <mxGeometry x="85" y="240" width="150" height="80" as="geometry" />
        </mxCell>
        <mxCell id="EbW1Ds2yCQRpLuTbbWyk-15" value="" style="edgeStyle=orthogonalEdgeStyle;rounded=0;orthogonalLoop=1;jettySize=auto;html=1;" edge="1" parent="1" source="EbW1Ds2yCQRpLuTbbWyk-10" target="EbW1Ds2yCQRpLuTbbWyk-14">
          <mxGeometry relative="1" as="geometry" />
        </mxCell>
        <mxCell id="EbW1Ds2yCQRpLuTbbWyk-10" value="While noticing you slept your exam, you don&#39;t care&lt;br&gt;a) sleep&lt;br&gt;b) get up and play games" style="whiteSpace=wrap;html=1;rounded=0;" vertex="1" parent="1">
          <mxGeometry x="80" y="350" width="160" height="110" as="geometry" />
        </mxCell>
        <mxCell id="EbW1Ds2yCQRpLuTbbWyk-12" value="" style="curved=1;endArrow=classic;html=1;rounded=0;exitX=0;exitY=0;exitDx=0;exitDy=0;entryX=1;entryY=0;entryDx=0;entryDy=0;" edge="1" parent="1" source="EbW1Ds2yCQRpLuTbbWyk-6" target="EbW1Ds2yCQRpLuTbbWyk-1">
          <mxGeometry width="50" height="50" relative="1" as="geometry">
            <mxPoint x="510" y="290" as="sourcePoint" />
            <mxPoint x="560" y="240" as="targetPoint" />
            <Array as="points">
              <mxPoint x="660" y="90" />
              <mxPoint x="510" y="10" />
              <mxPoint x="330" y="80" />
            </Array>
          </mxGeometry>
        </mxCell>
        <mxCell id="EbW1Ds2yCQRpLuTbbWyk-13" value="" style="curved=1;endArrow=classic;html=1;rounded=0;exitX=1;exitY=0;exitDx=0;exitDy=0;entryX=0;entryY=1;entryDx=0;entryDy=0;" edge="1" parent="1" source="EbW1Ds2yCQRpLuTbbWyk-8" target="EbW1Ds2yCQRpLuTbbWyk-4">
          <mxGeometry width="50" height="50" relative="1" as="geometry">
            <mxPoint x="370" y="230" as="sourcePoint" />
            <mxPoint x="420" y="180" as="targetPoint" />
            <Array as="points">
              <mxPoint x="280" y="200" />
              <mxPoint x="300" y="190" />
            </Array>
          </mxGeometry>
        </mxCell>
        <mxCell id="EbW1Ds2yCQRpLuTbbWyk-17" value="" style="edgeStyle=orthogonalEdgeStyle;rounded=0;orthogonalLoop=1;jettySize=auto;html=1;" edge="1" parent="1" source="EbW1Ds2yCQRpLuTbbWyk-14" target="EbW1Ds2yCQRpLuTbbWyk-16">
          <mxGeometry relative="1" as="geometry" />
        </mxCell>
        <mxCell id="EbW1Ds2yCQRpLuTbbWyk-14" value="You won the game!&lt;br&gt;a) make coffee&lt;br&gt;b) go to WC" style="whiteSpace=wrap;html=1;rounded=0;" vertex="1" parent="1">
          <mxGeometry x="100" y="490" width="120" height="60" as="geometry" />
        </mxCell>
        <mxCell id="EbW1Ds2yCQRpLuTbbWyk-16" value="After WC&lt;br&gt;a) go to sleep&lt;br&gt;b) go play more video games" style="whiteSpace=wrap;html=1;rounded=0;" vertex="1" parent="1">
          <mxGeometry x="300" y="490" width="120" height="60" as="geometry" />
        </mxCell>
        <mxCell id="EbW1Ds2yCQRpLuTbbWyk-18" value="" style="curved=1;endArrow=classic;html=1;rounded=0;exitX=0;exitY=1;exitDx=0;exitDy=0;entryX=1;entryY=1;entryDx=0;entryDy=0;" edge="1" parent="1" source="EbW1Ds2yCQRpLuTbbWyk-16" target="EbW1Ds2yCQRpLuTbbWyk-14">
          <mxGeometry width="50" height="50" relative="1" as="geometry">
            <mxPoint x="370" y="340" as="sourcePoint" />
            <mxPoint x="420" y="290" as="targetPoint" />
            <Array as="points">
              <mxPoint x="300" y="570" />
              <mxPoint x="270" y="570" />
            </Array>
          </mxGeometry>
        </mxCell>
        <mxCell id="EbW1Ds2yCQRpLuTbbWyk-19" value="Drink coffe&lt;br&gt;a) make another one&lt;br&gt;b) go to sleep" style="whiteSpace=wrap;html=1;rounded=0;" vertex="1" parent="1">
          <mxGeometry x="390" y="280" width="120" height="60" as="geometry" />
        </mxCell>
        <mxCell id="EbW1Ds2yCQRpLuTbbWyk-22" value="" style="curved=1;endArrow=classic;html=1;rounded=0;entryX=1;entryY=1;entryDx=0;entryDy=0;exitX=1;exitY=1;exitDx=0;exitDy=0;" edge="1" parent="1" source="EbW1Ds2yCQRpLuTbbWyk-19" target="EbW1Ds2yCQRpLuTbbWyk-4">
          <mxGeometry width="50" height="50" relative="1" as="geometry">
            <mxPoint x="440" y="370" as="sourcePoint" />
            <mxPoint x="490" y="320" as="targetPoint" />
            <Array as="points">
              <mxPoint x="490" y="370" />
              <mxPoint x="580" y="310" />
              <mxPoint x="570" y="280" />
            </Array>
          </mxGeometry>
        </mxCell>
        <mxCell id="EbW1Ds2yCQRpLuTbbWyk-23" value="" style="curved=1;endArrow=classic;html=1;rounded=0;entryX=1;entryY=1;entryDx=0;entryDy=0;exitX=0;exitY=0;exitDx=0;exitDy=0;" edge="1" parent="1" source="EbW1Ds2yCQRpLuTbbWyk-19" target="EbW1Ds2yCQRpLuTbbWyk-1">
          <mxGeometry width="50" height="50" relative="1" as="geometry">
            <mxPoint x="440" y="370" as="sourcePoint" />
            <mxPoint x="490" y="320" as="targetPoint" />
            <Array as="points">
              <mxPoint x="360" y="280" />
              <mxPoint x="320" y="290" />
            </Array>
          </mxGeometry>
        </mxCell>
      </root>
    </mxGraphModel>
  </diagram>
</mxfile>
